{
	"short_name": "MusicalEras",
	"name": "MusicalEras :: Classical Music",
	"description": "Historical inventory of eras and compositors in classical music",
	"start_url": "https://musicaleras.herokuapp.com",
	"scope": "/",
	"display": "standalone",
	"background_color": "#242428",
	"theme_color": "#0c7f8e",
	"icons": [
		{
			"src": "/assets/trademark/musicaleras_appicon_bk_48.png",
			"sizes": "48x48",
			"type": "image/png",
			"purpose": "maskable"
		},
		{
			"src": "/assets/trademark/musicaleras_appicon_bk_72.png",
			"sizes": "72x72",
			"type": "image/png",
			"purpose": "maskable"
		},
		{
			"src": "/assets/trademark/musicaleras_appicon_bk_96.png",
			"sizes": "96x96",
			"type": "image/png",
			"purpose": "maskable"
		},
		{
			"src": "/assets/trademark/musicaleras_appicon_bk_128.png",
			"sizes": "128x128",
			"type": "image/png",
			"purpose": "maskable"
		},
		{
			"src": "/assets/trademark/musicaleras_appicon_bk_192.png",
			"sizes": "192x192",
			"type": "image/png",
			"purpose": "maskable"
		},
		{
			"src": "/assets/trademark/musicaleras_appicon_bk_256.png",
			"sizes": "256x256",
			"type": "image/png",
			"purpose": "maskable"
		}
	]
}